10	0.13664
15	0.14698
20	0.15294
25	0.15162
30	0.15618
35	0.162
40	0.16006
45	0.15894
50	0.16578
55	0.1618
60	0.16914
65	0.16498
70	0.16222
75	0.17038
80	0.1655
85	0.1683
90	0.17054
95	0.17796
100	0.17248
105	0.17112
110	0.172
115	0.17436
120	0.17492
125	0.18386
130	0.17888
135	0.1818
140	0.18372
145	0.17694
150	0.18298
155	0.18828
160	0.18262
165	0.18788
170	0.18758
175	0.1958
180	0.19286
185	0.19452
190	0.2014
195	0.19386
200	0.19928
205	0.20108
210	0.20722
215	0.20722
220	0.21218
225	0.21608
230	0.20376
235	0.2126
240	0.21582
245	0.21656
250	0.21008
255	0.22018
260	0.22886
265	0.23596
270	0.2333
275	0.23824
280	0.22642
285	0.24476
290	0.24796
295	0.24752
300	0.24092
305	0.2415
310	0.24776
315	0.25042
320	0.25628
325	0.25808
330	0.26354
335	0.2555
340	0.26334
345	0.27164
350	0.25602
355	0.25698
360	0.26786
365	0.27286
370	0.25988
375	0.2525
380	0.27652
385	0.27688
390	0.29964
395	0.29516
400	0.26992
405	0.28478
410	0.29584
415	0.29482
420	0.30432
425	0.29288
430	0.31386
435	0.3049
440	0.31038
445	0.31212
450	0.32822
455	0.30912
460	0.31814
465	0.33926
470	0.33954
475	0.3338
480	0.30708
485	0.30696
490	0.3663
495	0.34294
500	0.36052
505	0.34228
510	0.3342
515	0.34182
520	0.3665
525	0.35054
530	0.36304
535	0.36444
540	0.35482
545	0.34594
550	0.37002
555	0.39938
560	0.359
565	0.4154
570	0.36962
575	0.36428
580	0.36992
585	0.35414
590	0.34622
595	0.3815
600	0.3959
605	0.38312
610	0.4116
615	0.37846
620	0.4243
625	0.33382
630	0.3752
635	0.42478
640	0.41384
645	0.40986
650	0.37696
655	0.44258
660	0.40336
665	0.42082
670	0.44242
675	0.42616
680	0.40646
685	0.39792
690	0.39412
695	0.41428
700	0.41886
705	0.4286
710	0.4508
715	0.42228
720	0.46434
725	0.46288
730	0.41948
735	0.42422
740	0.4208
745	0.44568
750	0.40618
755	0.442
760	0.404
765	0.43064
770	0.4099
775	0.41962
780	0.45118
785	0.44006
790	0.42078
795	0.46322
800	0.45088
805	0.44212
810	0.44332
815	0.44256
820	0.41808
825	0.44136
830	0.46082
835	0.4456
840	0.4681
845	0.48492
850	0.44516
855	0.45906
860	0.44734
865	0.436
870	0.43924
875	0.47596
880	0.45468
885	0.4135
890	0.45014
895	0.46306
900	0.47674
905	0.41542
910	0.45158
915	0.48254
920	0.50778
925	0.4481
930	0.43656
935	0.46058
940	0.47546
945	0.43572
950	0.47178
955	0.442
960	0.47488
965	0.4809
970	0.41966
975	0.42716
980	0.45342
985	0.47404
990	0.49748
995	0.47258
1000	0.49242
