  -0.12093 - 0.01396i   0.99237 - 0.01945i
  -0.99248 + 0.01284i  -0.12042 + 0.01789i


   0.44893 - 0.37224i   0.80193 - 0.12965i
  -0.76022 + 0.28630i   0.57460 + 0.09971i


  -0.47923 - 0.11999i  -0.86782 + 0.05323i
   0.43183 + 0.75463i  -0.36334 - 0.33473i


   0.53306 + 0.09129i   0.82002 - 0.18731i
  -0.82933 + 0.14044i   0.45766 - 0.28816i


  -0.32416 - 0.38717i   0.78021 + 0.36918i
  -0.85165 - 0.14042i  -0.48688 + 0.13390i


   0.54199 + 0.12088i   0.59654 - 0.57946i
  -0.82511 + 0.10406i   0.24405 - 0.49881i


  -0.04240 + 0.57822i  -0.75452 - 0.30751i
  -0.60542 - 0.54528i  -0.50204 + 0.28999i


  -0.02319 + 0.36126i   0.71463 + 0.59855i
  -0.91960 - 0.15261i   0.25908 - 0.25284i


  -0.082453 - 0.054392i   0.983908 - 0.148890i
  -0.994800 + 0.024815i  -0.071715 + 0.067926i


   0.41321 - 0.43116i  -0.73924 + 0.31126i
   0.78493 - 0.16506i   0.58519 + 0.11916i


  -0.03282 + 0.55145i  -0.81196 + 0.18854i
  -0.53381 + 0.64021i   0.50721 + 0.21889i


   0.42236 + 0.26469i  -0.81138 + 0.30530i
  -0.75376 + 0.42824i  -0.06680 + 0.49395i


  -0.47381 - 0.20138i  -0.85714 - 0.01641i
   0.80886 + 0.28408i  -0.51431 + 0.02315i


   0.03072 + 0.54578i  -0.81750 + 0.18132i
   0.47045 - 0.69272i  -0.49584 - 0.23014i


  -0.03404 - 0.28687i   0.81317 + 0.50528i
  -0.95044 - 0.11492i  -0.20611 + 0.20242i


  -0.36166 + 0.31131i   0.58165 + 0.65877i
  -0.85106 - 0.21907i   0.11313 - 0.46358i


  -0.53541 - 0.26465i  -0.80133 - 0.03434i
   0.75189 + 0.27921i  -0.59614 + 0.03623i


   0.32015 + 0.24130i  -0.91596 - 0.01719i
   0.78438 + 0.47331i   0.39948 - 0.03371i


   0.15900 - 0.34022i   0.55154 + 0.74483i
  -0.91661 - 0.13711i  -0.22568 + 0.30016i


   0.51086 - 0.13383i   0.54198 + 0.65373i
  -0.84293 - 0.10280i   0.16343 + 0.50218i


  -0.52076 - 0.26025i  -0.54758 - 0.60103i
  -0.81004 + 0.07016i   0.55916 + 0.16204i


   0.35300 + 0.13890i  -0.91283 + 0.15111i
   0.88962 - 0.25431i   0.25952 - 0.27667i


   0.00789 - 0.26459i   0.93082 - 0.25201i
  -0.93453 + 0.23788i   0.13689 + 0.22657i


   0.54532 - 0.12509i  -0.73009 - 0.39236i
   0.81724 + 0.13817i   0.35383 + 0.43338i


   0.23430 - 0.20442i   0.93723 - 0.15785i
  -0.93807 + 0.15275i   0.28770 + 0.11796i


   0.47094 - 0.21148i   0.74127 + 0.42896i
  -0.82215 - 0.23992i   0.17226 + 0.48666i


   0.36344 - 0.33361i   0.21035 + 0.84402i
  -0.85640 - 0.15231i  -0.30806 + 0.38534i


